{
	"info": {
		"_postman_id": "ab632b78-8400-423a-8a42-0e1b45ebac93",
		"name": "Sprint 1",
		"schema": "https://schema.getpostman.com/json/collection/v2.1.0/collection.json"
	},
	"item": [
		{
			"name": "login admin",
			"request": {
				"method": "POST",
				"header": [],
				"body": {
					"mode": "raw",
					"raw": "{\r\n    \"email\":\"testing@postman.com\",\r\n    \"pass\":\"testing\"\r\n}",
					"options": {
						"raw": {
							"language": "json"
						}
					}
				},
				"url": {
					"raw": "http://localhost:3000/login",
					"protocol": "http",
					"host": [
						"localhost"
					],
					"port": "3000",
					"path": [
						"login"
					]
				}
			},
			"response": []
		},
		{
			"name": "registro",
			"request": {
				"method": "POST",
				"header": [],
				"body": {
					"mode": "raw",
					"raw": "{\r\n    \"username\": \"username-testing-2\",\r\n    \"nombre\": \"nombre-generico\",\r\n    \"email\": \"testing@postman.com\",\r\n    \"telefono\": \"123456\",\r\n    \"direccion\": \"username-testing-2's home\",\r\n    \"pass\": \"testing\"\r\n}",
					"options": {
						"raw": {
							"language": "json"
						}
					}
				},
				"url": {
					"raw": "http://localhost:3000/registro",
					"protocol": "http",
					"host": [
						"localhost"
					],
					"port": "3000",
					"path": [
						"registro"
					]
				}
			},
			"response": []
		},
		{
			"name": "productos/:userid",
			"request": {
				"method": "GET",
				"header": [],
				"url": {
					"raw": "http://localhost:3000/productos/2",
					"protocol": "http",
					"host": [
						"localhost"
					],
					"port": "3000",
					"path": [
						"productos",
						"2"
					]
				}
			},
			"response": []
		},
		{
			"name": "mediosdepago/:userid",
			"request": {
				"method": "GET",
				"header": [],
				"url": {
					"raw": "http://localhost:3000/mediosdepago/2",
					"protocol": "http",
					"host": [
						"localhost"
					],
					"port": "3000",
					"path": [
						"mediosdepago",
						"2"
					]
				}
			},
			"response": []
		},
		{
			"name": "pedidos/:userid",
			"request": {
				"method": "POST",
				"header": [],
				"body": {
					"mode": "raw",
					"raw": "{\r\n    \"productos_pedido\":[{\r\n        \"producto_id\":1,\r\n        \"producto_cantidad\":3\r\n    },\r\n    {\r\n        \"producto_id\":2,\r\n        \"producto_cantidad\":1\r\n    }]\r\n}",
					"options": {
						"raw": {
							"language": "json"
						}
					}
				},
				"url": {
					"raw": "http://localhost:3000/pedidos/2",
					"protocol": "http",
					"host": [
						"localhost"
					],
					"port": "3000",
					"path": [
						"pedidos",
						"2"
					]
				}
			},
			"response": []
		},
		{
			"name": "pedidos/:userid",
			"request": {
				"method": "GET",
				"header": [],
				"url": {
					"raw": "http://localhost:3000/pedidos/2",
					"protocol": "http",
					"host": [
						"localhost"
					],
					"port": "3000",
					"path": [
						"pedidos",
						"2"
					]
				}
			},
			"response": []
		},
		{
			"name": "pedidos/:userid actualizar pedido",
			"request": {
				"method": "PUT",
				"header": [],
				"body": {
					"mode": "raw",
					"raw": "{\r\n    \"id_pedido\":\"1\",\r\n    \"id_producto\":\"1\",\r\n    \"id_producto_nuevo\":\"0\",\r\n    \"cantidad_producto\":\"20\",\r\n    \"direccion\":\"Otra dirección\"\r\n}",
					"options": {
						"raw": {
							"language": "json"
						}
					}
				},
				"url": {
					"raw": "http://localhost:3000/pedidos/2",
					"protocol": "http",
					"host": [
						"localhost"
					],
					"port": "3000",
					"path": [
						"pedidos",
						"2"
					]
				}
			},
			"response": []
		},
		{
			"name": "pedidos/:userid cerrar pedido",
			"request": {
				"method": "PUT",
				"header": [],
				"body": {
					"mode": "raw",
					"raw": "{\r\n    \"id_pedido\":\"1\",\r\n    \"id_mediodepago\":\"1\"\r\n}",
					"options": {
						"raw": {
							"language": "json"
						}
					}
				},
				"url": {
					"raw": "http://localhost:3000/pedidos/2",
					"protocol": "http",
					"host": [
						"localhost"
					],
					"port": "3000",
					"path": [
						"pedidos",
						"2"
					]
				}
			},
			"response": []
		},
		{
			"name": "login admin",
			"request": {
				"method": "POST",
				"header": [],
				"body": {
					"mode": "raw",
					"raw": "{\r\n    \"email\":\"testing@postman.com\",\r\n    \"pass\":\"testing\"\r\n}",
					"options": {
						"raw": {
							"language": "json"
						}
					}
				},
				"url": {
					"raw": "http://localhost:3000/login",
					"protocol": "http",
					"host": [
						"localhost"
					],
					"port": "3000",
					"path": [
						"login"
					]
				}
			},
			"response": []
		},
		{
			"name": "admin/pedidos/:userid",
			"request": {
				"method": "GET",
				"header": [],
				"url": {
					"raw": "http://localhost:3000/admin/pedidos/0",
					"protocol": "http",
					"host": [
						"localhost"
					],
					"port": "3000",
					"path": [
						"admin",
						"pedidos",
						"0"
					]
				}
			},
			"response": []
		},
		{
			"name": "admin/pedidos/:userid",
			"request": {
				"method": "PUT",
				"header": [],
				"body": {
					"mode": "raw",
					"raw": "{\r\n    \"id_pedido\":1,\r\n    \"estado\":\"En Preparación\"\r\n}",
					"options": {
						"raw": {
							"language": "json"
						}
					}
				},
				"url": {
					"raw": "http://localhost:3000/admin/pedidos/0",
					"protocol": "http",
					"host": [
						"localhost"
					],
					"port": "3000",
					"path": [
						"admin",
						"pedidos",
						"0"
					]
				}
			},
			"response": []
		},
		{
			"name": "admin/mediosdepago/:userid",
			"request": {
				"method": "POST",
				"header": [],
				"body": {
					"mode": "raw",
					"raw": "{\r\n    \"nombre\":\"Tarjeta SUBE\"\r\n}",
					"options": {
						"raw": {
							"language": "json"
						}
					}
				},
				"url": {
					"raw": "http://localhost:3000/admin/mediosdepago/0",
					"protocol": "http",
					"host": [
						"localhost"
					],
					"port": "3000",
					"path": [
						"admin",
						"mediosdepago",
						"0"
					]
				}
			},
			"response": []
		},
		{
			"name": "admin/mediosdepago/:userid",
			"request": {
				"method": "PUT",
				"header": [],
				"body": {
					"mode": "raw",
					"raw": "{\r\n    \"id\":\"1\",\r\n    \"nombre\":\"Débito (solo Mastercard)\"\r\n}",
					"options": {
						"raw": {
							"language": "json"
						}
					}
				},
				"url": {
					"raw": "http://localhost:3000/admin/mediosdepago/0",
					"protocol": "http",
					"host": [
						"localhost"
					],
					"port": "3000",
					"path": [
						"admin",
						"mediosdepago",
						"0"
					]
				}
			},
			"response": []
		},
		{
			"name": "admin/mediosdepago/:userid",
			"request": {
				"method": "DELETE",
				"header": [],
				"body": {
					"mode": "raw",
					"raw": "{\r\n    \"id\":\"0\"\r\n}",
					"options": {
						"raw": {
							"language": "json"
						}
					}
				},
				"url": {
					"raw": "http://localhost:3000/admin/mediosdepago/0",
					"protocol": "http",
					"host": [
						"localhost"
					],
					"port": "3000",
					"path": [
						"admin",
						"mediosdepago",
						"0"
					]
				}
			},
			"response": []
		}
	]
}